06-01-2020 02:57:37 - FATAL - m: 7.9 MB, u: 0 -  - 46.229.168.142 - HTTP method invalid
09-01-2020 01:01:34 - FATAL - m: 13,2 MB, u: 0 -  - 46.229.168.137 - HTTP method invalid
17-01-2020 00:48:19 - FATAL - m: 12,7 MB, u: 0 -  - 46.229.168.138 - HTTP method invalid
17-01-2020 20:29:22 - FATAL - m: 12,7 MB, u: 0 -  - 46.229.168.153 - HTTP method invalid
22-01-2020 05:16:47 - FATAL - m: 13,2 MB, u: 0 -  - 46.229.168.145 - HTTP method invalid
22-01-2020 20:06:00 - FATAL - m: 8.0 MB, u: 0 -  - 46.229.168.130 - HTTP method invalid
28-01-2020 15:37:18 - FATAL - m: 8.0 MB, u: 0 -  - 46.229.168.138 - HTTP method invalid
30-01-2020 08:35:45 - FATAL - m: 13,3 MB, u: 0 -  - 46.229.168.142 - HTTP method invalid
