02-08-2019 07:19:52 - FATAL - m: 8.0 MB, u: 0 -  - 46.229.168.143 - HTTP method invalid
04-08-2019 05:47:06 - FATAL - m: 12,8 MB, u: 0 -  - 46.229.168.129 - HTTP method invalid
19-08-2019 23:03:06 - FATAL - m: 13,2 MB, u: 0 -  - 46.229.168.141 - HTTP method invalid
21-08-2019 13:49:56 - FATAL - m: 13,2 MB, u: 0 -  - 46.229.168.134 - HTTP method invalid
