<?xml version="1.0" encoding="utf-8"?>
<!-- Generator: Adobe Illustrator 19.1.0, SVG Export Plug-In . SVG Version: 6.00 Build 0)  -->
<svg version="1.1" id="Warstwa_1" xmlns="http://www.w3.org/2000/svg" xmlns:xlink="http://www.w3.org/1999/xlink" x="0px" y="0px"
	 viewBox="119.5 64.7 500 70" style="enable-background:new 119.5 64.7 500 70;" xml:space="preserve">
<path d="M559.7,129.5v-0.5l6.4-5.4V75.8l-6.4-5.5v-0.4h42.4v13.3h-0.5l-7.4-8.2h-14.6v20.7h15.2l5.3-6.5h0.5v17.9h-0.5l-5.3-6.5
	h-15.2v23.6h16.3l7.6-10.4h0.6v15.7H559.7z M522,130.5c-18.6,0-33.8-11.2-33.8-30.5c0-17.4,14-31,34.4-31c7.6,0,15.3,1.6,17.9,2.2
	v14.2h-0.7c-4.3-4.9-12.4-11.2-19.3-11.2c-8.5,0-17.3,9.7-17.3,24.1c0,16.8,9.7,26.6,19.4,26.6c9,0,15.8-8.1,18.3-11.7h0.7v13.4
	C538.5,128.1,531.6,130.5,522,130.5z M465.5,129.5h-5.8l-40.6-44.7v38.6l8.8,5.6v0.5h-21.7v-0.5l6.5-5.6V77.8
	c-3-3.2-6.8-7.1-7.2-7.5v-0.4h18.7l34.8,38.8V76l-8.3-5.7v-0.4h21.1v0.4l-6.4,5.7V129.5z M366.1,128.9l6.3-5.4l-5.5-12.9h-16.7
	l-4.8,12.4l6.6,5.9v0.5h-18.4v-0.5l5.5-5.4l21.4-54.3h3.1l23.2,54.3l5.4,5.4v0.5h-26V128.9z M358.2,90l-6,15.7h12.7L358.2,90z
	 M270.9,128.9l6.4-5.4V75.8l-6.4-5.5v-0.4h26.3v0.4l-6.4,5.5v48.4h16.9l10.4-13.2h0.6v18.4h-47.9V128.9z M230.7,128.9l6.3-5.4
	l-5.5-12.9h-16.7l-4.8,12.4l6.6,5.9v0.5h-18.4v-0.5l5.5-5.4L225,69.3h3.1l23.2,54.3l5.4,5.4v0.5h-26V128.9z M222.7,90l-6,15.7h12.7
	L222.7,90z M162.4,129.5H135v-0.5l6.4-5.4V75.8l-6.4-5.5v-0.4h25.5c11.7,0,20.3,3.9,20.3,12.9c0,5.8-5.6,10.6-10.5,12.4
	c9.1,1.3,15.9,6.8,15.9,15.4C186.2,122,176.8,129.5,162.4,129.5z M158.3,74.6H155V95h6.6c2.9,0,6.8-4.4,6.8-10.6
	C168.3,77.5,164.1,74.6,158.3,74.6z M158.7,99.4H155v23.9c1.3,0.6,3.4,1.3,6.7,1.3c5.4,0,10.6-4.9,10.6-13
	C172.3,103,166.4,99.4,158.7,99.4z"/>
</svg>
