<svg xmlns="http://www.w3.org/2000/svg" xmlns:xlink="http://www.w3.org/1999/xlink" preserveAspectRatio="xMidYMid" width="104" height="200" viewBox="0 0 52 100">
  <defs>
    <style>
      .cls-1 {
        fill: #fff;
        fill-rule: evenodd;
      }
    </style>
  </defs>
  <path d="M43.364,60.043 L43.362,60.043 L43.362,60.059 L0.227,60.062 L0.231,8.576 L8.854,8.576 L8.854,0.008 L8.857,0.008 L8.857,0.008 L51.989,0.008 L51.989,51.492 L43.364,51.492 L43.364,60.043 ZM8.854,51.493 L8.854,12.859 L4.540,12.859 L4.540,55.777 L39.051,55.775 L39.051,51.492 L8.854,51.493 ZM26.106,25.713 L26.106,25.713 L26.106,25.713 L26.106,42.925 L26.103,42.925 L26.103,42.930 L13.167,42.930 L13.167,47.209 L30.421,47.209 L30.423,47.209 L30.423,21.426 L13.167,21.426 L13.167,25.713 L26.106,25.713 ZM13.167,29.997 L13.167,38.647 L21.793,38.647 L21.793,29.997 L13.167,29.997 ZM34.737,17.144 L34.736,47.209 L39.051,47.209 L39.051,12.859 L13.167,12.859 L13.167,17.144 L34.737,17.144 ZM47.676,47.209 L47.676,4.291 L13.167,4.291 L13.167,8.576 L43.364,8.576 L43.364,8.578 L43.364,47.209 L47.676,47.209 ZM2.324,87.652 C1.340,87.484 0.115,87.275 0.115,85.838 C0.115,84.850 1.130,84.105 2.476,84.105 C3.725,84.105 4.670,84.725 4.897,85.686 L3.450,85.992 C3.349,85.441 2.862,85.242 2.432,85.242 C2.005,85.242 1.552,85.444 1.552,85.816 C1.552,86.258 2.115,86.356 2.766,86.468 C3.750,86.639 4.972,86.850 4.972,88.279 C4.972,89.279 3.923,90.032 2.532,90.032 C1.238,90.032 0.315,89.439 0.056,88.441 L1.493,88.145 C1.601,88.629 1.984,88.895 2.577,88.895 C3.054,88.895 3.535,88.691 3.535,88.300 C3.535,87.858 2.974,87.762 2.324,87.652 ZM2.751,94.083 C3.480,94.083 4.180,94.376 4.671,94.884 C5.251,95.486 5.536,96.383 5.496,97.481 L1.495,97.481 L1.502,97.526 C1.646,98.486 2.260,98.829 2.785,98.829 C3.286,98.829 3.699,98.536 3.897,98.043 L5.311,98.339 C4.861,99.371 3.885,100.011 2.751,100.011 C1.422,100.011 0.009,98.970 0.009,97.041 C0.009,95.120 1.422,94.083 2.751,94.083 ZM3.984,96.434 L3.979,96.391 C3.894,95.610 3.300,95.254 2.785,95.254 C2.166,95.254 1.688,95.689 1.536,96.388 L1.526,96.434 L3.984,96.434 ZM8.204,84.868 L8.269,84.808 C8.753,84.361 9.344,84.106 9.891,84.106 C10.484,84.106 10.970,84.368 11.260,84.844 L11.283,84.882 L11.318,84.855 C11.904,84.378 12.583,84.106 13.177,84.106 C14.228,84.106 14.855,84.887 14.855,86.194 L14.855,89.921 L13.362,89.921 L13.362,86.239 C13.362,85.479 12.916,85.366 12.650,85.366 C12.324,85.366 11.890,85.571 11.569,85.878 L11.555,85.891 L11.557,85.910 C11.568,86.007 11.568,86.083 11.568,86.194 L11.568,89.921 L10.076,89.921 L10.076,86.239 C10.076,85.479 9.630,85.366 9.364,85.366 C8.979,85.366 8.565,85.630 8.305,85.878 L8.294,85.889 L8.294,89.921 L6.801,89.921 L6.801,84.217 L8.204,84.217 L8.204,84.868 ZM8.769,94.841 L8.833,94.787 C9.365,94.340 10.013,94.083 10.614,94.083 C11.044,94.083 12.448,94.236 12.448,96.194 L12.448,99.899 L10.955,99.899 L10.955,96.251 C10.955,95.674 10.651,95.343 10.120,95.343 C9.737,95.343 9.247,95.544 8.873,95.854 L8.859,95.865 L8.859,99.899 L7.366,99.899 L7.366,94.195 L8.769,94.195 L8.769,94.841 ZM15.149,92.731 L16.641,92.541 L16.641,94.195 L18.132,94.195 L18.133,94.195 L18.133,95.592 L16.641,95.592 L16.642,98.502 L18.132,98.502 L18.132,99.898 L15.149,99.898 L15.149,95.592 L14.240,95.592 L14.240,95.455 L14.240,94.195 L15.149,94.195 L15.149,92.731 ZM16.599,87.064 C16.599,85.594 17.433,84.106 19.027,84.106 C19.576,84.106 20.052,84.291 20.528,84.687 L20.591,84.740 L20.591,84.217 L21.995,84.217 L21.995,88.188 C21.995,88.835 22.084,89.347 22.301,89.921 L20.854,89.921 C20.762,89.696 20.723,89.475 20.680,89.250 L20.666,89.174 L20.614,89.232 C20.155,89.741 19.519,90.033 18.870,90.033 C17.776,90.033 16.599,89.103 16.599,87.064 ZM19.364,88.773 C19.740,88.773 20.150,88.586 20.490,88.261 L20.502,88.249 L20.502,85.820 L20.487,85.809 C20.134,85.510 19.789,85.365 19.431,85.365 C18.638,85.365 18.125,86.032 18.125,87.064 C18.125,87.853 18.450,88.773 19.364,88.773 ZM24.154,95.585 L21.911,95.585 L21.911,99.899 L20.418,99.899 L20.418,94.188 L24.154,94.188 L24.154,95.585 ZM28.154,85.618 L25.912,85.618 L25.912,89.921 L24.419,89.921 L24.419,84.220 L28.154,84.220 L28.154,85.618 ZM27.601,94.083 C28.149,94.083 28.626,94.267 29.102,94.665 L29.165,94.718 L29.165,94.195 L30.569,94.195 L30.569,98.166 C30.569,98.811 30.658,99.325 30.875,99.898 L29.427,99.898 C29.335,99.674 29.297,99.452 29.254,99.228 L29.239,99.152 L29.187,99.210 C28.728,99.719 28.093,100.011 27.444,100.011 C26.350,100.011 25.173,99.081 25.173,97.041 C25.173,95.571 26.007,94.083 27.601,94.083 ZM27.938,98.751 C28.314,98.751 28.724,98.564 29.064,98.238 L29.075,98.227 L29.075,95.798 L29.061,95.787 C28.708,95.488 28.362,95.343 28.005,95.343 C27.211,95.343 26.699,96.010 26.699,97.041 C26.699,97.829 27.024,98.751 27.938,98.751 ZM33.312,88.523 L33.312,89.921 L30.327,89.921 L30.327,85.616 L29.419,85.616 L29.419,85.477 L29.419,84.220 L29.419,84.217 L30.327,84.217 L30.327,82.753 L31.819,82.562 L31.819,84.217 L33.312,84.217 L33.312,84.220 L33.312,85.477 L33.312,85.616 L31.819,85.616 L31.820,88.523 L33.312,88.523 ZM34.391,94.841 L34.455,94.787 C34.986,94.340 35.635,94.083 36.235,94.083 C36.666,94.083 38.070,94.236 38.070,96.194 L38.070,99.899 L36.577,99.899 L36.577,96.251 C36.577,95.674 36.273,95.343 35.742,95.343 C35.359,95.343 34.869,95.544 34.495,95.854 L34.481,95.865 L34.481,99.899 L32.988,99.899 L32.988,94.195 L34.391,94.195 L34.391,94.841 ZM42.617,94.083 C43.891,94.083 44.832,94.797 45.203,96.043 L43.725,96.350 C43.583,95.608 43.080,95.343 42.651,95.343 C42.075,95.343 41.401,95.788 41.401,97.042 C41.401,98.303 42.075,98.751 42.651,98.751 C43.080,98.751 43.583,98.485 43.726,97.743 L45.204,98.040 C44.840,99.293 43.899,100.011 42.617,100.011 C41.288,100.011 39.875,98.970 39.875,97.042 C39.875,95.120 41.288,94.083 42.617,94.083 ZM49.268,94.083 C49.996,94.083 50.696,94.375 51.188,94.884 C51.767,95.486 52.052,96.384 52.012,97.482 L48.011,97.482 L48.018,97.526 C48.163,98.486 48.777,98.829 49.302,98.829 C49.803,98.829 50.215,98.536 50.413,98.044 L51.827,98.339 C51.378,99.371 50.402,100.011 49.268,100.011 C47.938,100.011 46.525,98.970 46.525,97.041 C46.525,95.120 47.938,94.083 49.268,94.083 ZM50.500,96.434 L50.495,96.392 C50.410,95.610 49.818,95.254 49.302,95.254 C48.683,95.254 48.203,95.689 48.052,96.388 L48.042,96.434 L50.500,96.434 Z" class="cls-1"/>
</svg>
