<?xml version="1.0" encoding="utf-8"?>
<!-- Generator: Adobe Illustrator 19.1.0, SVG Export Plug-In . SVG Version: 6.00 Build 0)  -->
<svg version="1.1" id="Warstwa_1" xmlns="http://www.w3.org/2000/svg" xmlns:xlink="http://www.w3.org/1999/xlink" x="0px" y="0px"
	 viewBox="94.3 64.6 500 70" style="enable-background:new 94.3 64.6 500 70;" xml:space="preserve">
<path d="M566.1,84.6l-8.7-9.6h-11.5v48.4l7.3,5.5v0.5h-28.4v-0.5l7.4-5.5V75h-11.6l-8.6,9.6h-0.5V69.9h55.4v14.8H566.1z
	 M473.4,130.4c-18.6,0-33.8-11.2-33.8-30.5c0-17.4,14-31,34.4-31c7.6,0,15.3,1.6,17.9,2.2v14.2h-0.7c-4.3-4.9-12.4-11.2-19.4-11.2
	c-8.5,0-17.3,9.7-17.3,24.1c0,16.8,9.7,26.6,19.4,26.6c9,0,15.8-8.1,18.3-11.7h0.7v13.4C489.9,128.1,483.1,130.4,473.4,130.4z
	 M376.8,128.9l6.4-5.4V75.8l-6.4-5.5v-0.5h42.4v13.3h-0.5l-7.4-8.2h-14.6v20.7h15.2l5.3-6.5h0.5v17.9h-0.5l-5.3-6.5h-15.2v23.6H413
	l7.6-10.4h0.6v15.7h-44.4V128.9z M335,105.7v-1.2c5.8-2.2,12.2-7.7,12.2-17.1c0-8.3-5.6-12.8-12.8-12.8h-2.4v48.9l7.6,5.4v0.5h-27.5
	v-0.5l6.4-5.4V75.8l-6.4-5.5v-0.5h24.8c14.8,0,23.8,5.8,23.8,16.3C360.8,99.8,346.8,105.5,335,105.7z M295.2,112.8
	c0,9.9-8.1,17.6-20.9,17.6c-7.8,0-13.5-2-16.3-3.3c-0.4-3-0.9-12.7-0.7-19.1h0.8c4.1,9.4,9.3,16.8,16.1,16.8c4.3,0,7.8-3.4,7.8-8.3
	c0-5.4-2.8-8.1-9.8-13.1c-9.2-6.8-13.3-11.9-13.3-19.2c0-9.9,8.4-15.3,19.5-15.3c6.4,0,11.4,1.1,12.7,1.5v13.3h-0.6
	c-5.2-6.4-9.4-9.8-13.6-9.8c-3,0-5.9,2.2-5.9,5.9c0,5,2.9,7.3,9.6,12.3C289.7,99.2,295.2,103.9,295.2,112.8z M193.7,128.9l6.4-5.4
	V75.8l-6.4-5.5v-0.5h42.4v13.3h-0.5l-7.4-8.2h-14.6v20.7h15.2l5.3-6.5h0.5v17.9h-0.5l-5.3-6.5h-15.2v23.6h16.3l7.6-10.4h0.6v15.7
	h-44.4V128.9z M174,130.1c-10.5,0-13.9-3.7-17.3-10.1l-10.1-19.1h-4.8v22.6l6.9,5.4l0.1,0.5H122v-0.5l6.4-5.4V75.8l-6.4-5.5v-0.5
	h25.5c12.2,0,21.8,3.5,21.8,13.7c0,6.7-5.5,11.7-10.1,14.1l9.6,16.8c5.2,9.1,9.6,12.4,12.1,14.4v0.5
	C179.9,129.6,177.1,130.1,174,130.1z M146.1,74.7h-4.2v21.6h8.4c2.8,0,6.3-4.7,6.3-10.6C156.6,77.7,151.3,74.7,146.1,74.7z"/>
</svg>
